%!PS-Adobe-3.0
%%BoundingBox: 0 0 421 595
%%HiResBoundingBox: 0 0 421 595
%%Title: GMT v4.5.6 [64-bit] Document from psbasemap
%%Creator: GMT
%%For: sbarbot
%%DocumentNeededResources: font Helvetica
%%CreationDate: Wed Apr 11 10:57:36 2012
%%LanguageLevel: 2
%%DocumentData: Clean7Bit
%%Orientation: Portrait
%%Pages: 1
%%EndComments

%%BeginProlog
250 dict begin
/! {bind def} bind def
/# {load def}!
/A /setgray #
/B /setdash #
/C /setrgbcolor #
/D /rlineto #
/E {dup stringwidth pop}!
/F /fill #
/G /rmoveto #
/H /sethsbcolor #
/I /setpattern #
/K /setcmykcolor #
/L /lineto #
/M {stroke moveto}!
/m /moveto #
/N /newpath #
/P /closepath #
/R /rotate #
/S /stroke #
/T /translate #
/U /grestore #
/V /gsave #
/W /setlinewidth #
/Y {findfont exch scalefont setfont}!
/Z /show #
/FP {true charpath flattenpath}!
/MS {/savematrix matrix currentmatrix def}!
/MR {savematrix setmatrix}!
/O {S 3 -1 roll 0 360 arc P F S}!
/X {M 1.414213562 mul 5 {dup} repeat -2 div dup G D neg 0 G neg D S}!
/x {M dup 0 G dup -2 mul dup 0 D exch dup G 0 exch D S}!
/FS {/fc exch def /fs {V fc F U} def}!
/FQ {/fs {} def}!
/O0 {/os {N} def}!
/O1 {/os {S} def}!
/SP {M {D} repeat P fs os}!
/SV {0 exch M 0 D D D D D 0 D P fs os}!
/Sv {0 0 M D D 0 D D D D D 0 D D P fs os}!
/SB {M dup 0 D exch 0 exch D neg 0 D P fs os}!
/SC {S 3 -1 roll 0 360 arc P fs os}!
/SE {S MS T R scale 0 0 1 0 360 arc MR P fs os}!
/SD {M 4 {dup} repeat 0 G neg dup dup D exch D D P fs os}!
/SR {M MS R dup -2 div 0 G exch dup -2 div 0 exch G exch dup 0 D exch 0 exch D neg 0 D MR P fs os}!
/SS {M 1.414213562 mul dup dup dup -2 div dup G 0 D 0 exch D neg 0 D P fs os}!
/ST {M MS dup 0 exch G -60 R 1.732050808 mul dup 0 D -120 R 0 D MR P fs os}!
/SI {M MS dup neg 0 exch G 60 R 1.732050808 mul dup 0 D 120 R 0 D MR P fs os}!
/SA {M MS dup 0 exch G 0.726542528 mul -72 R dup 0 D 4 {72 R dup 0 D -144 R dup 0 D} repeat pop MR P fs os}!
/SH {M MS dup 0 G -120 R dup 0 D 4 {-60 R dup 0 D} repeat pop MR P fs os}!
/SN {M MS dup 0 exch G -36 R 1.175570505 mul dup 0 D 3 {-72 R dup 0 D} repeat pop MR P fs os}!
/SO {M MS 22.5 R dup 0 exch G -22.5 R 0.765366865 mul dup 0 D 6 {-45 R dup 0 D} repeat pop MR P fs os}!
/SW {S 2 copy 7 -3 roll arc L P fs os}!
/PSL_reencode {findfont dup length dict begin
  {1 index /FID ne {def}{pop pop} ifelse} forall
  exch /Encoding exch def currentdict end definefont pop
}!
/PSL_eps_begin {
  /PSL_eps_state save def
  /PSL_dict_count countdictstack def
  /PSL_op_count count 1 sub def
  userdict begin
  /showpage {} def
  0 setgray 0 setlinecap 1 setlinewidth
  0 setlinejoin 10 setmiterlimit [] 0 setdash newpath
  /languagelevel where
  {pop languagelevel 1 ne {false setstrokeadjust false setoverprint} if} if
}!
/PSL_eps_end {
  count PSL_op_count sub {pop} repeat
  countdictstack PSL_dict_count sub {end} repeat
  PSL_eps_state restore
}!
/ISOLatin1+_Encoding [
/.notdef	/.notdef	/.notdef	/.notdef	/.notdef	/.notdef	/.notdef	/.notdef
/.notdef	/.notdef	/.notdef	/.notdef	/.notdef	/.notdef	/.notdef	/.notdef
/.notdef	/.notdef	/.notdef	/.notdef	/.notdef	/.notdef	/.notdef	/.notdef
/.notdef	/bullet		/ellipsis	/trademark	/emdash		/endash		/fi		/zcaron
/space		/exclam		/quotedbl	/numbersign	/dollar		/percent	/ampersand	/quoteright
/parenleft	/parenright	/asterisk	/plus		/comma		/minus		/period		/slash
/zero		/one		/two		/three		/four		/five		/six		/seven
/eight		/nine		/colon		/semicolon	/less		/equal		/greater	/question
/at		/A		/B		/C		/D		/E		/F		/G
/H		/I		/J		/K		/L		/M		/N		/O
/P		/Q		/R		/S		/T		/U		/V		/W
/X		/Y		/Z		/bracketleft	/backslash	/bracketright	/asciicircum	/underscore
/quoteleft	/a		/b		/c 		/d		/e		/f		/g
/h		/i		/j		/k		/l		/m		/n		/o
/p		/q		/r		/s		/t		/u		/v		/w
/x		/y		/z		/braceleft	/bar		/braceright	/asciitilde	/scaron
/OE		/dagger		/daggerdbl	/Lslash		/fraction	/guilsinglleft	/Scaron		/guilsinglright
/oe		/Ydieresis	/Zcaron		/lslash		/perthousand	/quotedblbase	/quotedblleft	/quotedblright
/dotlessi	/grave		/acute		/circumflex	/tilde		/macron		/breve		/dotaccent
/dieresis	/quotesinglbase	/ring		/cedilla	/quotesingle	/hungarumlaut	/ogonek		/caron
/space		/exclamdown	/cent		/sterling	/currency	/yen		/brokenbar	/section
/dieresis	/copyright	/ordfeminine	/guillemotleft	/logicalnot	/hyphen		/registered	/macron
/degree		/plusminus	/twosuperior	/threesuperior	/acute		/mu		/paragraph	/periodcentered
/cedilla	/onesuperior	/ordmasculine	/guillemotright	/onequarter	/onehalf	/threequarters	/questiondown
/Agrave		/Aacute		/Acircumflex	/Atilde		/Adieresis	/Aring		/AE		/Ccedilla
/Egrave		/Eacute		/Ecircumflex	/Edieresis	/Igrave		/Iacute		/Icircumflex	/Idieresis
/Eth		/Ntilde		/Ograve		/Oacute		/Ocircumflex	/Otilde		/Odieresis	/multiply
/Oslash		/Ugrave		/Uacute		/Ucircumflex	/Udieresis	/Yacute		/Thorn		/germandbls
/agrave		/aacute		/acircumflex	/atilde		/adieresis	/aring		/ae		/ccedilla
/egrave		/eacute		/ecircumflex	/edieresis	/igrave		/iacute		/icircumflex	/idieresis
/eth		/ntilde		/ograve		/oacute		/ocircumflex	/otilde		/odieresis	/divide
/oslash		/ugrave		/uacute		/ucircumflex	/udieresis	/yacute		/thorn		/ydieresis
] def
/PSL_font_encode 0 0 0 0 0 0 0 0 0 0 0 0 0 0 0 0 0 0 0 0 0 0 0 0 0 0 0 0 0 0 0 0 0 0 0 35 array astore def
/F0 {/Helvetica Y}!
/F1 {/Helvetica-Bold Y}!
/F2 {/Helvetica-Oblique Y}!
/F3 {/Helvetica-BoldOblique Y}!
/F4 {/Times-Roman Y}!
/F5 {/Times-Bold Y}!
/F6 {/Times-Italic Y}!
/F7 {/Times-BoldItalic Y}!
/F8 {/Courier Y}!
/F9 {/Courier-Bold Y}!
/F10 {/Courier-Oblique Y}!
/F11 {/Courier-BoldOblique Y}!
/F12 {/Symbol Y}!
/F13 {/AvantGarde-Book Y}!
/F14 {/AvantGarde-BookOblique Y}!
/F15 {/AvantGarde-Demi Y}!
/F16 {/AvantGarde-DemiOblique Y}!
/F17 {/Bookman-Demi Y}!
/F18 {/Bookman-DemiItalic Y}!
/F19 {/Bookman-Light Y}!
/F20 {/Bookman-LightItalic Y}!
/F21 {/Helvetica-Narrow Y}!
/F22 {/Helvetica-Narrow-Bold Y}!
/F23 {/Helvetica-Narrow-Oblique Y}!
/F24 {/Helvetica-Narrow-BoldOblique Y}!
/F25 {/NewCenturySchlbk-Roman Y}!
/F26 {/NewCenturySchlbk-Italic Y}!
/F27 {/NewCenturySchlbk-Bold Y}!
/F28 {/NewCenturySchlbk-BoldItalic Y}!
/F29 {/Palatino-Roman Y}!
/F30 {/Palatino-Italic Y}!
/F31 {/Palatino-Bold Y}!
/F32 {/Palatino-BoldItalic Y}!
/F33 {/ZapfChancery-MediumItalic Y}!
/F34 {/ZapfDingbats Y}!
/PSL_pathtextdict 26 dict def
/PSL_pathtext
  { PSL_pathtextdict begin
    /textheight exch def
    /just exch def
    /offset exch def
    /str exch def
    /pathdist 0 def
    /setdist offset def
    /charcount 0 def
    /justy just 4 idiv textheight mul 2 div neg def
    V flattenpath
	{movetoproc} {linetoproc}
	{curvetoproc} {closepathproc}
	pathforall
    U N
    end
  } def
PSL_pathtextdict begin
/movetoproc
  { /newy exch def /newx exch def
    /firstx newx def /firsty newy def
    /ovr 0 def
    newx newy transform
    /cpy exch def /cpx exch def
  } def
/linetoproc
  { /oldx newx def /oldy newy def
    /newy exch def /newx exch def
    /dx newx oldx sub def
    /dy newy oldy sub def
    /dist dx dup mul dy dup mul add sqrt def
    dist 0 ne
    { /dsx dx dist div ovr mul def
      /dsy dy dist div ovr mul def
      oldx dsx add oldy dsy add transform
      /cpy exch def /cpx exch def
      /pathdist pathdist dist add def
      { setdist pathdist le
	  { charcount str length lt
	      {setchar} {exit} ifelse }
	  { /ovr setdist pathdist sub def
	    exit }
	  ifelse
      } loop
    } if
  } def
/curvetoproc
  { (ERROR: No curveto's after flattenpath!)
    print
  } def
/closepathproc
  { firstx firsty linetoproc
    firstx firsty movetoproc
  } def
/setchar
  { /char str charcount 1 getinterval def
    /charcount charcount 1 add def
    /charwidth char stringwidth pop def
    V cpx cpy itransform T
      dy dx atan R
      0 justy m
      char show
      0 justy neg G
      currentpoint transform
      /cpy exch def /cpx exch def
    U /setdist setdist charwidth add def
  } def
end
/PSL_curved_text_labels
{ /bits exch def
  /PSL_clippath bits 1 and 1 eq def
  /PSL_placetext bits 2 and 0 eq def
  /PSL_strokeline bits 4 and 4 eq def
  /PSL_firstcall bits 32 and 32 eq def
  /PSL_lastcall bits 64 and 64 eq def
  /PSL_fillbox bits 128 and 128 eq def
  /PSL_drawbox bits 256 and 256 eq def
  /PSL_n1 PSL_n 1 sub def
  /PSL_m1 PSL_m 1 sub def
  /PSL_usebox PSL_fillbox PSL_drawbox or def
  PSL_CT_calcstringwidth
  PSL_CT_calclinedist
  PSL_CT_addcutpoints
  PSL_clippath PSL_firstcall and
  { V N clippath } if
  PSL_setlinepen
  /PSL_nn1 PSL_nn 1 sub def
  /n 0 def
  /k 0 def
  /j 0 def
  /PSL_seg 0 def
  /PSL_xp PSL_nn array def
  /PSL_yp PSL_nn array def
  PSL_xp 0 PSL_xx 0 get put
  PSL_yp 0 PSL_yy 0 get put
  1 1 PSL_nn1
  { /i exch def
    /node_type PSL_kind i get def
    /j j 1 add def
    PSL_xp j PSL_xx i get put
    PSL_yp j PSL_yy i get put
    node_type 1 eq
    { n 0 eq
      { PSL_CT_drawline }
      {	PSL_CT_reversepath
	PSL_CT_textline } ifelse
      /j 0 def
      PSL_xp j PSL_xx i get put
      PSL_yp j PSL_yy i get put
    } if
  } for
  n 0 eq {PSL_CT_drawline} if
  PSL_lastcall
  { PSL_clippath
    { clip /PSL_clip_on true def } if N
  } if
} def
/PSL_CT_textline
{ PSL_placetext
  { PSL_clippath
    { PSL_CT_clippath }
    { PSL_CT_placelabel } ifelse
  } if
  /n 0 def /k k 1 add def PSL_setlinepen
} def
/PSL_CT_calcstringwidth
{ /PSL_width PSL_m array def
  0 1 PSL_m1
  { /i exch def
    PSL_width i PSL_str i get stringwidth pop put
  } for
} def
/PSL_CT_calclinedist
{ /PSL_newx PSL_x 0 get def
  /PSL_newy PSL_y 0 get def
  /dist 0.0 def
  /PSL_dist PSL_n array def
  PSL_dist 0 0.0 put
  1 1 PSL_n1
  { /i exch def
    /PSL_oldx PSL_newx def
    /PSL_oldy PSL_newy def
    /PSL_newx PSL_x i get def
    /PSL_newy PSL_y i get def
    /dx PSL_newx PSL_oldx sub def
    /dy PSL_newy PSL_oldy sub def
    /dist dist dx dx mul dy dy mul add sqrt add def
    PSL_dist i dist put
  } for
} def
/PSL_CT_addcutpoints
{ /k 0 def
  /PSL_nc PSL_m 2 mul 1 add def
  /PSL_cuts PSL_nc array def
  /PSL_nc1 PSL_nc 1 sub def
  0 1 PSL_m1
  { /i exch def
    /dist PSL_dist PSL_node i get get def
    /halfwidth PSL_width i get 2 div PSL_gap_x add def
    PSL_cuts k dist halfwidth sub put
    /k k 1 add def
    PSL_cuts k dist halfwidth add put
    /k k 1 add def
  } for
  PSL_cuts k 100000.0 put
  /PSL_nn PSL_n PSL_m 2 mul add def
  /PSL_xx PSL_nn array def
  /PSL_yy PSL_nn array def
  /PSL_kind PSL_nn array def
  /j 0 def
  /k 0 def
  /dist 0.0 def
  0 1 PSL_n1
  { /i exch def
    /last_dist dist def
    /dist PSL_dist i get def
    k 1 PSL_nc1
    { /kk exch def
      /this_cut PSL_cuts kk get def
      dist this_cut gt
      { /ds dist last_dist sub def
	/f ds 0.0 eq {0.0} {dist this_cut sub ds div} ifelse def
	/i1 i 0 eq { 0 } { i 1 sub } ifelse def
	PSL_xx j PSL_x i get dup PSL_x i1 get sub f mul sub put
	PSL_yy j PSL_y i get dup PSL_y i1 get sub f mul sub put
	PSL_kind j 1 put
	/j j 1 add def
	/k k 1 add def
      } if
    } for
    dist PSL_cuts k get le
    { PSL_xx j PSL_x i get put PSL_yy j PSL_y i get put
      PSL_kind j 0 put
      /j j 1 add def
    } if
  } for
} def
/PSL_CT_reversepath
{ PSL_xp j get PSL_xp 0 get lt
  { 0 1 j 2 idiv
    { /left exch def
      /right j left sub def
      /tmp PSL_xp left get def
      PSL_xp left PSL_xp right get put
      PSL_xp right tmp put
      /tmp PSL_yp left get def
      PSL_yp left PSL_yp right get put
      PSL_yp right tmp put
    } for
  } if
} def
/PSL_CT_placelabel
{
  PSL_usebox
  { PSL_CT_clippath
    PSL_fillbox
    { V PSL_setboxrgb fill U } if
    PSL_drawbox
    { PSL_setboxpen S } if N
  } if
  PSL_settxtrgb PSL_CT_placeline PSL_str k get PSL_gap_x PSL_just PSL_height PSL_pathtext
} def
/PSL_CT_clippath
{
  /H PSL_height 2 div PSL_gap_y add def
  /xoff j 1 add array def
  /yoff j 1 add array def
  /angle 0 def
  0 1 j {
    /ii exch def
    /x PSL_xp ii get def
    /y PSL_yp ii get def
    ii 0 eq {
      /x1 PSL_xp 1 get def
      /y1 PSL_yp 1 get def
      /dx x1 x sub def
      /dy y1 y sub def
    }
    { /i1 ii 1 sub def
      /x1 PSL_xp i1 get def
      /y1 PSL_yp i1 get def
      /dx x x1 sub def
      /dy y y1 sub def
    } ifelse
    dx 0.0 ne dy 0.0 ne and
    { /angle dy dx atan 90 add def } if
    /sina angle sin def
    /cosa angle cos def
    xoff ii H cosa mul put
    yoff ii H sina mul put
  } for
  PSL_xp 0 get xoff 0 get add PSL_yp 0 get yoff 0 get add m
  1 1 j {
    /ii exch def
    PSL_xp ii get xoff ii get add PSL_yp ii get yoff ii get add L
  } for
  j -1 0 {
    /ii exch def
    PSL_xp ii get xoff ii get sub PSL_yp ii get yoff ii get sub L
  } for P
} def
/PSL_CT_drawline
{
  /str 20 string def
  PSL_strokeline
  { PSL_CT_placeline PSL_setlinepen S } if
  /PSL_seg PSL_seg 1 add def
  /n 1 def
} def
/PSL_CT_placeline
{ PSL_xp 0 get PSL_yp 0 get m
  1 1 j { /ii exch def PSL_xp ii get PSL_yp ii get L} for
} def
/PSL_straight_text_labels
{
  /bits exch def
  /PSL_clippath bits 1 and 0 eq def
  /PSL_rounded bits 16 and 16 eq def
  /PSL_fillbox bits 128 and 128 eq def
  /PSL_drawbox bits 256 and 256 eq def
  /PSL_m1 PSL_m 1 sub def
  /PSL_justx PSL_just 4 mod 1 sub 2 div neg def
  /PSL_justy PSL_just 4 idiv PSL_height mul 2 div neg def
  /PSL_usebox PSL_fillbox PSL_drawbox or def
  PSL_clippath
  { PSL_ST_clippath }
  { PSL_usebox { PSL_ST_clippath } if
    PSL_ST_placelabel
  } ifelse
} def
/PSL_ST_placelabel
{ PSL_settxtrgb
  0 1 PSL_m1
  { /k exch def
    /xp PSL_txt_x k get def
    /yp PSL_txt_y k get def
    V PSL_txt_x k get PSL_txt_y k get T
    PSL_angle k get R
    /BoxW PSL_str k get stringwidth pop def
    BoxW PSL_justx mul PSL_justy m
    PSL_str k get show
    U
  } for
} def
/PSL_ST_clippath
{ PSL_rounded { PSL_ST_clippath_round } { PSL_ST_clippath_rect } ifelse
  PSL_usebox
  { PSL_fillbox
    { V PSL_setboxrgb fill U } if
    PSL_drawbox
    { PSL_setboxpen S } if N
  }
  { clip /PSL_clip_on true def
  } ifelse
  N
} def
/PSL_ST_clippath_rect
{ N
  /BoxH PSL_height PSL_gap_y 2 mul add def
  /DelY BoxH BoxH 0 3 array astore def
  PSL_usebox not { V clippath } if
  0 1 PSL_m1
  { /k exch def
    /xp PSL_txt_x k get def
    /yp PSL_txt_y k get def
    /MAT PSL_angle k get matrix R def
    /BoxW PSL_str k get stringwidth pop PSL_gap_x 2 mul add def
    /x0 0 BoxW PSL_justx mul add def
    /y0 0 PSL_justy add PSL_gap_y sub def
    /DelX 0 BoxW BoxW 3 array astore def
    x0 y0 MAT transform
    /dy exch def /dx exch def
    xp dx add yp dy add m
    0 1 2
    {
      /ii exch def
      x0 DelX ii get add y0 DelY ii get add MAT transform
      /dy exch def /dx exch def
      xp dx add yp dy add L
    } for P
  } for
} def
/PSL_ST_clippath_round
{ N
  /PSL_justy2 PSL_just 4 idiv 2 div neg def
  /PSL_r PSL_gap_x PSL_gap_y lt { PSL_gap_x } { PSL_gap_y } ifelse def
  /PSL_dx PSL_gap_x PSL_r sub def
  /PSL_dy PSL_gap_y PSL_r sub def
  /PSL_r2 PSL_r 2 mul def
  /BoxH PSL_height PSL_dy 2 mul add def
  /y0 PSL_height PSL_gap_y 2 mul add PSL_justy2 mul def
  PSL_usebox not { V clippath } if
  0 1 PSL_m1
  { /k exch def
    /xp PSL_txt_x k get def
    /yp PSL_txt_y k get def
    /PSL_width PSL_str k get stringwidth pop def
    /BoxW PSL_width PSL_dx 2 mul add def
    /x0 BoxW PSL_justx mul def
    xp yp T PSL_angle k get R x0 y0 T
    0 0 m
    BoxW PSL_r add 0 BoxW PSL_r add PSL_r PSL_r arct
    BoxW PSL_r add BoxH PSL_r2 add BoxW BoxH PSL_r2 add PSL_r arct
    PSL_r neg BoxH PSL_r2 add PSL_r neg BoxH PSL_r add PSL_r arct
    PSL_r neg 0 0 0 PSL_r arct P
    x0 neg y0 neg T PSL_angle k get neg R xp neg yp neg T
  } for
} def
/PSL_clip_on false def
%%EndProlog

%%BeginSetup
/PSLevel /languagelevel where {pop languagelevel} {1} ifelse def
PSLevel 1 gt { << /PageSize [421 595] /ImagingBBox null >> setpagedevice } if
%%EndSetup

%%Page: 1 1

%%BeginPageSetup
0.24 0.24 scale
%%EndPageSetup

PSL_font_encode 0 get 0 eq {ISOLatin1+_Encoding /Helvetica /Helvetica PSL_reencode PSL_font_encode 0 1 put} if
0 setlinecap
0 setlinejoin
3.32551 setmiterlimit
360 600 T

%% PostScript produced by:
%%GMT:  psbasemap -JX4i/4.000000i -R-40/20/-20/40 -Ba15::/a15:::.new_5:WSne -K -P -X1.2i -Y2.0i
%%PROJ: xy -40.00000000 20.00000000 -20.00000000 40.00000000 -40.000 20.000 -20.000 40.000 +xy +a=6378137.000 +b=6356752.314245
S 0 A
90 R
/PSL_sign 1 def
/PSL_do_annot 1 def
/PSL_do_label 0 def
/PSL_do_A1 0 def
/PSL_TL1 24 def
/PSL_AO0 24 def
/PSL_AO1 24 def
/PSL_LO 35 def
/PSL_AF0 50 def
/PSL_AF1 67 def
/PSL_LF 50 def
/PSL_AH0 0 def
/PSL_AH1 0 def
0 0 M 50 F0 (M) E /PSL_dim_w exch def FP pathbbox N /PSL_dim_h exch def pop /PSL_dim_d exch def pop
PSL_dim_h PSL_dim_d sub /PSL_LH exch def
S 5 W
0 0 M 1200 0 D S
S 2 W
100 0 M 0 24 D S
400 0 M 0 24 D S
700 0 M 0 24 D S
1000 0 M 0 24 D S
0 0 M 50 F0 (-15) E /PSL_dim_w exch def FP pathbbox N /PSL_dim_h exch def pop /PSL_dim_d exch def pop
PSL_dim_w PSL_AH0 gt {/PSL_AH0 PSL_dim_w def} if
0 0 M 50 F0 (0) E /PSL_dim_w exch def FP pathbbox N /PSL_dim_h exch def pop /PSL_dim_d exch def pop
PSL_dim_w PSL_AH0 gt {/PSL_AH0 PSL_dim_w def} if
0 0 M 50 F0 (15) E /PSL_dim_w exch def FP pathbbox N /PSL_dim_h exch def pop /PSL_dim_d exch def pop
PSL_dim_w PSL_AH0 gt {/PSL_AH0 PSL_dim_w def} if
0 0 M 50 F0 (30) E /PSL_dim_w exch def FP pathbbox N /PSL_dim_h exch def pop /PSL_dim_d exch def pop
PSL_dim_w PSL_AH0 gt {/PSL_AH0 PSL_dim_w def} if
100 0 M 0 12 D S
400 0 M 0 12 D S
700 0 M 0 12 D S
1000 0 M 0 12 D S
/PSL_A0_y PSL_AO0 PSL_TL1 PSL_AO0 mul 0 gt {PSL_TL1 add} if PSL_AO0 0 gt {PSL_sign 0 lt {PSL_AH0} {0} ifelse add} if PSL_sign mul def
/PSL_A1_y PSL_A0_y abs PSL_AO1 add PSL_sign 0 lt {PSL_AH1} {PSL_AH0} ifelse add PSL_sign mul def
/PSL_L_y PSL_A1_y abs PSL_LO add PSL_sign 0 lt {PSL_LH} {PSL_AH1} ifelse add PSL_sign mul def
/PSL_x 100 def
PSL_x PSL_A0_y M
currentpoint /PSL_save_y exch def /PSL_save_x exch def
0 0 M 50 F0 (-15) E /PSL_dim_w exch def FP pathbbox N /PSL_dim_h exch def pop /PSL_dim_d exch def pop
PSL_save_x PSL_save_y m
V -90 R PSL_dim_w neg PSL_dim_h 2 div neg G 50 F0 (-15) Z U
/PSL_x 400 def
PSL_x PSL_A0_y M
currentpoint /PSL_save_y exch def /PSL_save_x exch def
0 0 M 50 F0 (0) E /PSL_dim_w exch def FP pathbbox N /PSL_dim_h exch def pop /PSL_dim_d exch def pop
PSL_save_x PSL_save_y m
V -90 R PSL_dim_w neg PSL_dim_h 2 div neg G 50 F0 (0) Z U
/PSL_x 700 def
PSL_x PSL_A0_y M
currentpoint /PSL_save_y exch def /PSL_save_x exch def
0 0 M 50 F0 (15) E /PSL_dim_w exch def FP pathbbox N /PSL_dim_h exch def pop /PSL_dim_d exch def pop
PSL_save_x PSL_save_y m
V -90 R PSL_dim_w neg PSL_dim_h 2 div neg G 50 F0 (15) Z U
/PSL_x 1000 def
PSL_x PSL_A0_y M
currentpoint /PSL_save_y exch def /PSL_save_x exch def
0 0 M 50 F0 (30) E /PSL_dim_w exch def FP pathbbox N /PSL_dim_h exch def pop /PSL_dim_d exch def pop
PSL_save_x PSL_save_y m
V -90 R PSL_dim_w neg PSL_dim_h 2 div neg G 50 F0 (30) Z U
-90 R
1200 0 T 90 R
/PSL_sign -1 def
/PSL_do_annot 0 def
/PSL_do_label 0 def
/PSL_do_A1 0 def
/PSL_TL1 24 def
/PSL_AO0 24 def
/PSL_AO1 24 def
/PSL_LO 35 def
/PSL_AF0 50 def
/PSL_AF1 67 def
/PSL_LF 50 def
/PSL_AH0 0 def
/PSL_AH1 0 def
0 0 M 50 F0 (M) E /PSL_dim_w exch def FP pathbbox N /PSL_dim_h exch def pop /PSL_dim_d exch def pop
PSL_dim_h PSL_dim_d sub /PSL_LH exch def
S 5 W
0 0 M 1200 0 D S
S 2 W
100 0 M 0 -24 D S
400 0 M 0 -24 D S
700 0 M 0 -24 D S
1000 0 M 0 -24 D S
100 0 M 0 -12 D S
400 0 M 0 -12 D S
700 0 M 0 -12 D S
1000 0 M 0 -12 D S
/PSL_A0_y PSL_AO0 PSL_TL1 PSL_AO0 mul 0 gt {PSL_TL1 add} if PSL_AO0 0 gt {PSL_sign 0 lt {PSL_AH0} {0} ifelse add} if PSL_sign mul def
/PSL_A1_y PSL_A0_y abs PSL_AO1 add PSL_sign 0 lt {PSL_AH1} {PSL_AH0} ifelse add PSL_sign mul def
/PSL_L_y PSL_A1_y abs PSL_LO add PSL_sign 0 lt {PSL_LH} {PSL_AH1} ifelse add PSL_sign mul def
-90 R -1200 0 T
/PSL_sign -1 def
/PSL_do_annot 1 def
/PSL_do_label 0 def
/PSL_do_A1 0 def
/PSL_TL1 24 def
/PSL_AO0 24 def
/PSL_AO1 24 def
/PSL_LO 35 def
/PSL_AF0 50 def
/PSL_AF1 67 def
/PSL_LF 50 def
/PSL_AH0 0 def
/PSL_AH1 0 def
0 0 M 50 F0 (M) E /PSL_dim_w exch def FP pathbbox N /PSL_dim_h exch def pop /PSL_dim_d exch def pop
PSL_dim_h PSL_dim_d sub /PSL_LH exch def
S 5 W
0 0 M 1200 0 D S
S 2 W
200 0 M 0 -24 D S
500 0 M 0 -24 D S
800 0 M 0 -24 D S
1100 0 M 0 -24 D S
0 0 M 50 F0 (-30) E /PSL_dim_w exch def FP pathbbox N /PSL_dim_h exch def pop /PSL_dim_d exch def pop
PSL_dim_h PSL_AH0 gt {/PSL_AH0 PSL_dim_h def} if
0 0 M 50 F0 (-15) E /PSL_dim_w exch def FP pathbbox N /PSL_dim_h exch def pop /PSL_dim_d exch def pop
PSL_dim_h PSL_AH0 gt {/PSL_AH0 PSL_dim_h def} if
0 0 M 50 F0 (0) E /PSL_dim_w exch def FP pathbbox N /PSL_dim_h exch def pop /PSL_dim_d exch def pop
PSL_dim_h PSL_AH0 gt {/PSL_AH0 PSL_dim_h def} if
0 0 M 50 F0 (15) E /PSL_dim_w exch def FP pathbbox N /PSL_dim_h exch def pop /PSL_dim_d exch def pop
PSL_dim_h PSL_AH0 gt {/PSL_AH0 PSL_dim_h def} if
200 0 M 0 -12 D S
500 0 M 0 -12 D S
800 0 M 0 -12 D S
1100 0 M 0 -12 D S
/PSL_A0_y PSL_AO0 PSL_TL1 PSL_AO0 mul 0 gt {PSL_TL1 add} if PSL_AO0 0 gt {PSL_sign 0 lt {PSL_AH0} {0} ifelse add} if PSL_sign mul def
/PSL_A1_y PSL_A0_y abs PSL_AO1 add PSL_sign 0 lt {PSL_AH1} {PSL_AH0} ifelse add PSL_sign mul def
/PSL_L_y PSL_A1_y abs PSL_LO add PSL_sign 0 lt {PSL_LH} {PSL_AH1} ifelse add PSL_sign mul def
/PSL_x 200 def
PSL_x PSL_A0_y M
currentpoint /PSL_save_y exch def /PSL_save_x exch def
0 0 M 50 F0 (-30) E /PSL_dim_w exch def FP pathbbox N /PSL_dim_h exch def pop /PSL_dim_d exch def pop
PSL_save_x PSL_save_y m
PSL_dim_w 2 div neg 0 G 50 F0 (-30) Z
/PSL_x 500 def
PSL_x PSL_A0_y M
currentpoint /PSL_save_y exch def /PSL_save_x exch def
0 0 M 50 F0 (-15) E /PSL_dim_w exch def FP pathbbox N /PSL_dim_h exch def pop /PSL_dim_d exch def pop
PSL_save_x PSL_save_y m
PSL_dim_w 2 div neg 0 G 50 F0 (-15) Z
/PSL_x 800 def
PSL_x PSL_A0_y M
currentpoint /PSL_save_y exch def /PSL_save_x exch def
0 0 M 50 F0 (0) E /PSL_dim_w exch def FP pathbbox N /PSL_dim_h exch def pop /PSL_dim_d exch def pop
PSL_save_x PSL_save_y m
PSL_dim_w 2 div neg 0 G 50 F0 (0) Z
/PSL_x 1100 def
PSL_x PSL_A0_y M
currentpoint /PSL_save_y exch def /PSL_save_x exch def
0 0 M 50 F0 (15) E /PSL_dim_w exch def FP pathbbox N /PSL_dim_h exch def pop /PSL_dim_d exch def pop
PSL_save_x PSL_save_y m
PSL_dim_w 2 div neg 0 G 50 F0 (15) Z
0 1200 T
/PSL_sign 1 def
/PSL_do_annot 0 def
/PSL_do_label 0 def
/PSL_do_A1 0 def
/PSL_TL1 24 def
/PSL_AO0 24 def
/PSL_AO1 24 def
/PSL_LO 35 def
/PSL_AF0 50 def
/PSL_AF1 67 def
/PSL_LF 50 def
/PSL_AH0 0 def
/PSL_AH1 0 def
0 0 M 50 F0 (M) E /PSL_dim_w exch def FP pathbbox N /PSL_dim_h exch def pop /PSL_dim_d exch def pop
PSL_dim_h PSL_dim_d sub /PSL_LH exch def
S 5 W
0 0 M 1200 0 D S
S 2 W
200 0 M 0 24 D S
500 0 M 0 24 D S
800 0 M 0 24 D S
1100 0 M 0 24 D S
200 0 M 0 12 D S
500 0 M 0 12 D S
800 0 M 0 12 D S
1100 0 M 0 12 D S
/PSL_A0_y PSL_AO0 PSL_TL1 PSL_AO0 mul 0 gt {PSL_TL1 add} if PSL_AO0 0 gt {PSL_sign 0 lt {PSL_AH0} {0} ifelse add} if PSL_sign mul def
/PSL_A1_y PSL_A0_y abs PSL_AO1 add PSL_sign 0 lt {PSL_AH1} {PSL_AH0} ifelse add PSL_sign mul def
/PSL_L_y PSL_A1_y abs PSL_LO add PSL_sign 0 lt {PSL_LH} {PSL_AH1} ifelse add PSL_sign mul def
0 -1200 T
/PSL_sign 1 def
/PSL_do_annot 0 def
/PSL_do_label 0 def
/PSL_do_A1 0 def
/PSL_TL1 24 def
/PSL_AO0 24 def
/PSL_AO1 24 def
/PSL_LO 35 def
/PSL_AF0 50 def
/PSL_AF1 67 def
/PSL_LF 50 def
/PSL_AH0 0 def
/PSL_AH1 0 def
0 0 M 50 F0 (M) E /PSL_dim_w exch def FP pathbbox N /PSL_dim_h exch def pop /PSL_dim_d exch def pop
PSL_dim_h PSL_dim_d sub /PSL_LH exch def
/PSL_A0_y PSL_AO0 PSL_TL1 PSL_AO0 mul 0 gt {PSL_TL1 add} if PSL_AO0 0 gt {PSL_sign 0 lt {PSL_AH0} {0} ifelse add} if PSL_sign mul def
/PSL_A1_y PSL_A0_y abs PSL_AO1 add PSL_sign 0 lt {PSL_AH1} {PSL_AH0} ifelse add PSL_sign mul def
/PSL_L_y PSL_A1_y abs PSL_LO add PSL_sign 0 lt {PSL_LH} {PSL_AH1} ifelse add PSL_sign mul def
/PSL_HO 59 def
/PSL_H_y PSL_L_y PSL_LH add PSL_HO add def
/PSL_H_y PSL_L_y PSL_HO add def
/PSL_x 600 def
/PSL_y 1200 def
/PSL_HF 50 def
0 0 M 50 F0 (new_5) E /PSL_dim_w exch def FP pathbbox N /PSL_dim_h exch def pop /PSL_dim_d exch def pop
PSL_x PSL_dim_w 2 div sub PSL_y PSL_H_y add M
50 F0 (new_5) Z
S 0 0 1 C
S 0 A
PSL_font_encode 0 get 0 eq {ISOLatin1+_Encoding /Helvetica /Helvetica PSL_reencode PSL_font_encode 0 1 put} if
0 setlinecap
0 setlinejoin
3.32551 setmiterlimit

%% PostScript produced by:
%%GMT:  psxy -JX4i/4.000000i -R-40/20/-20/40 -O -K -P -m -W0.5p/110/110/110
%%PROJ: xy -40.00000000 20.00000000 -20.00000000 40.00000000 -40.000 20.000 -20.000 40.000 +xy +a=6378137.000 +b=6356752.314245
S 2 W
S 0.431 A
179 1193 M
-6 2 D
S
434 885 M
-11 4 D
-13 12 D
-7 10 D
0 10 D
S
618 686 M
-6 3 D
-3 4 D
S
959 32 M
1 15 D
S
959 32 M
-6 3 D
-6 12 D
S
234 1089 M
8 -10 D
5 -4 D
18 -9 D
6 1 D
2 2 D
S
1035 102 M
6 3 D
20 -16 D
S
177 1200 M
1 -2 D
1 -5 D
S
155 1193 M
16 -19 D
5 -10 D
1 -8 D
5 -6 D
19 -16 D
7 -8 D
S
179 1193 M
2 -6 D
42 -51 D
2 -6 D
30 -33 D
26 -20 D
8 -5 D
S
455 1165 M
11 -18 D
3 -13 D
2 -22 D
5 -17 D
5 -11 D
S
248 1121 M
9 -13 D
S
215 1119 M
13 -21 D
S
267 1078 M
6 -9 D
S
273 1069 M
15 -16 D
S
311 1022 M
18 -23 D
15 -11 D
6 -4 D
16 -19 D
12 -15 D
21 -20 D
4 -9 D
S
342 973 M
26 -28 D
S
403 921 M
7 -4 D
20 -24 D
3 -3 D
1 -5 D
S
434 885 M
2 -1 D
27 -33 D
23 -24 D
1 -3 D
3 -4 D
14 -17 D
9 -6 D
S
429 872 M
4 -8 D
5 -5 D
6 -4 D
12 -12 D
S
513 797 M
8 -4 D
15 -14 D
10 -10 D
27 -23 D
22 -22 D
S
513 797 M
1 -7 D
12 -14 D
32 -30 D
8 -5 D
26 -30 D
11 -11 D
S
537 756 M
2 -19 D
7 -15 D
8 -7 D
19 -10 D
8 -11 D
6 -14 D
5 -7 D
S
603 715 M
5 -8 D
S
616 694 M
2 -4 D
0 -4 D
S
618 686 M
1 -2 D
S
619 684 M
2 0 D
S
619 684 M
1 -7 D
26 -34 D
S
598 665 M
2 -6 D
9 -15 D
S
652 636 M
16 -18 D
29 -35 D
3 -5 D
20 -22 D
35 -38 D
14 -15 D
22 -29 D
7 -7 D
11 -8 D
14 -19 D
11 -17 D
1 -2 D
3 -2 D
0 -2 D
8 -10 D
11 -19 D
7 -15 D
14 -24 D
4 -9 D
5 -8 D
7 -13 D
S
617 636 M
15 -16 D
2 0 D
S
646 616 M
17 -24 D
9 -17 D
S
678 563 M
11 -16 D
16 -18 D
S
717 516 M
40 -33 D
S
752 407 M
20 -23 D
S
803 383 M
13 -18 D
S
779 377 M
14 -20 D
S
798 349 M
13 -22 D
S
816 319 M
9 -16 D
4 -5 D
S
899 306 M
3 -11 D
13 -17 D
14 -26 D
S
835 290 M
13 -19 D
S
0 230 M
17 -12 D
40 -45 D
3 -6 D
S
0 215 M
15 -11 D
17 -18 D
15 -24 D
S
855 262 M
20 -17 D
S
937 234 M
0 -2 D
9 -10 D
37 -58 D
16 -19 D
7 -8 D
16 -19 D
3 -1 D
8 -9 D
0 -3 D
2 -3 D
S
1 197 M
18 -17 D
S
979 146 M
3 -9 D
11 -9 D
4 -10 D
17 -14 D
S
26 173 M
34 -41 D
S
1018 142 M
12 -14 D
11 -9 D
S
60 167 M
6 -4 D
6 -12 D
4 -15 D
3 -7 D
S
60 167 M
-1 -14 D
S
1049 112 M
18 -15 D
S
1035 102 M
8 -13 D
18 -22 D
35 -38 D
18 -26 D
2 -3 D
S
85 120 M
15 -19 D
S
1076 90 M
14 -12 D
1 0 D
S
1068 83 M
18 -17 D
S
1044 75 M
6 -12 D
7 -9 D
S
959 76 M
2 -8 D
-1 -10 D
S
943 74 M
2 -16 D
S
108 93 M
24 -23 D
23 -26 D
12 -15 D
20 -24 D
4 -5 D
S
1092 57 M
13 -21 D
S
1112 28 M
10 -11 D
8 -6 D
S
959 32 M
0 -8 D
S
1085 26 M
6 -10 D
S
1135 9 M
3 -4 D
7 -5 D
S
959 13 M
0 -13 D
S
1099 4 M
3 -4 D
S
1125 3 M
2 -3 D
S
757 463 M
2 2 D
S
772 460 M
2 2 D
S
769 440 M
2 3 D
S
790 440 M
2 2 D
S
805 420 M
2 2 D
S
785 419 M
2 2 D
S
799 396 M
2 3 D
S
829 348 M
2 2 D
S
846 329 M
2 2 D
S
863 310 M
2 2 D
S
887 292 M
2 2 D
S
903 272 M
2 2 D
S
920 252 M
2 2 D
S
884 232 M
2 3 D
S
898 220 M
2 2 D
S
909 204 M
2 2 D
S
911 184 M
2 2 D
S
913 167 M
2 2 D
S
1068 36 M
2 3 D
S
1078 20 M
2 2 D
S
1088 6 M
2 2 D
S
S 0 A
PSL_font_encode 0 get 0 eq {ISOLatin1+_Encoding /Helvetica /Helvetica PSL_reencode PSL_font_encode 0 1 put} if
0 setlinecap
0 setlinejoin
3.32551 setmiterlimit

%% PostScript produced by:
%%GMT:  psxy -JX4i/4.000000i -R-40/20/-20/40 -O -K -P -W0.5p/110/110/110
%%PROJ: xy -40.00000000 20.00000000 -20.00000000 40.00000000 -40.000 20.000 -20.000 40.000 +xy +a=6378137.000 +b=6356752.314245
S 2 W
S 0.431 A
853 343 M
-464 602 D
S
S 0 A
PSL_font_encode 0 get 0 eq {ISOLatin1+_Encoding /Helvetica /Helvetica PSL_reencode PSL_font_encode 0 1 put} if
0 setlinecap
0 setlinejoin
3.32551 setmiterlimit

%% PostScript produced by:
%%GMT:  psxy -JX4i/4.000000i -R-40/20/-20/40 -O -K -P -Sa0.4c -G240/10/10 -W0.6p/10/10/10
%%PROJ: xy -40.00000000 20.00000000 -20.00000000 40.00000000 -40.000 20.000 -20.000 40.000 +xy +a=6378137.000 +b=6356752.314245
S V
0 0 M
1200 0 D
0 1200 D
-1200 0 D
eoclip N
S 2 W
S 0.0392 A
{0.941 0.0392 0.0392 C} FS
O1
24 800 400 SA
S U
S [] 0 B
S 0 A
PSL_font_encode 0 get 0 eq {ISOLatin1+_Encoding /Helvetica /Helvetica PSL_reencode PSL_font_encode 0 1 put} if
0 setlinecap
0 setlinejoin
3.32551 setmiterlimit

%% PostScript produced by:
%%GMT:  psxy -JX4i/4.000000i -R-40/20/-20/40 -O -K -P -Sa0.4c -G10/240/10 -W0.6p/10/10/10
%%PROJ: xy -40.00000000 20.00000000 -20.00000000 40.00000000 -40.000 20.000 -20.000 40.000 +xy +a=6378137.000 +b=6356752.314245
S V
0 0 M
1200 0 D
0 1200 D
-1200 0 D
eoclip N
S 2 W
S 0.0392 A
{0.0392 0.941 0.0392 C} FS
O1
24 549 718 SA
S U
S [] 0 B
S 0 A
PSL_font_encode 0 get 0 eq {ISOLatin1+_Encoding /Helvetica /Helvetica PSL_reencode PSL_font_encode 0 1 put} if
0 setlinecap
0 setlinejoin
3.32551 setmiterlimit

%% PostScript produced by:
%%GMT:  psxy -JX4i/4.000000i -R-40/20/-20/40 -O -K -P -Sa0.4c -G10/10/240 -W0.6p/10/10/10
%%PROJ: xy -40.00000000 20.00000000 -20.00000000 40.00000000 -40.000 20.000 -20.000 40.000 +xy +a=6378137.000 +b=6356752.314245
S V
0 0 M
1200 0 D
0 1200 D
-1200 0 D
eoclip N
S 2 W
S 0.0392 A
S U
S [] 0 B
S 0 A
PSL_font_encode 0 get 0 eq {ISOLatin1+_Encoding /Helvetica /Helvetica PSL_reencode PSL_font_encode 0 1 put} if
0 setlinecap
0 setlinejoin
3.32551 setmiterlimit

%% PostScript produced by:
%%GMT:  pstext -JX4i/4.000000i -R-40/20/-20/40 -O -K -P -G0/0/0 -D0/-0.1
%%PROJ: xy -40.00000000 20.00000000 -20.00000000 40.00000000 -40.000 20.000 -20.000 40.000 +xy +a=6378137.000 +b=6356752.314245
S 0 W
S 0 A
S V
0 0 M
1200 0 D
0 1200 D
-1200 0 D
eoclip N
PSL_font_encode 2 get 0 eq {ISOLatin1+_Encoding /Helvetica-Oblique /Helvetica-Oblique PSL_reencode PSL_font_encode 2 1 put} if
0 0 M 38 F2 (Rinconada Flt) E /PSL_dim_w exch def FP pathbbox N /PSL_dim_h exch def pop /PSL_dim_d exch def pop
0 428 M V -50 R PSL_dim_w 2 div neg PSL_dim_h neg G 38 F2 (Rinconada Flt) Z U
S U
S [] 0 B
S 0 A
PSL_font_encode 0 get 0 eq {ISOLatin1+_Encoding /Helvetica /Helvetica PSL_reencode PSL_font_encode 0 1 put} if
0 setlinecap
0 setlinejoin
3.32551 setmiterlimit

%% PostScript produced by:
%%GMT:  psxy -JX4i/4.000000i -R-40/20/-20/40 -O -K -P -St0.3c -W0.5px,0/0/0 -G110/110/110
%%PROJ: xy -40.00000000 20.00000000 -20.00000000 40.00000000 -40.000 20.000 -20.000 40.000 +xy +a=6378137.000 +b=6356752.314245
S V
0 0 M
1200 0 D
0 1200 D
-1200 0 D
eoclip N
S 0 W
S 0 A
{0.431 A} FS
O1
18 702 680 ST
18 703 566 ST
18 117 373 ST
18 613 521 ST
18 754 548 ST
18 627 594 ST
18 403 445 ST
18 677 443 ST
18 655 643 ST
18 704 747 ST
18 774 459 ST
18 854 449 ST
18 960 376 ST
18 232 887 ST
18 147 1072 ST
18 319 657 ST
18 632 834 ST
18 517 1020 ST
18 705 1088 ST
18 837 925 ST
18 491 764 ST
18 960 841 ST
18 378 280 ST
18 504 361 ST
18 800 251 ST
18 1139 139 ST
18 938 115 ST
18 1024 107 ST
18 1035 124 ST
18 1058 201 ST
18 1076 121 ST
18 634 698 ST
18 554 662 ST
18 619 639 ST
18 534 598 ST
18 833 626 ST
S U
S [] 0 B
S 0 A
PSL_font_encode 0 get 0 eq {ISOLatin1+_Encoding /Helvetica /Helvetica PSL_reencode PSL_font_encode 0 1 put} if
0 setlinecap
0 setlinejoin
3.32551 setmiterlimit

%% PostScript produced by:
%%GMT:  psxy -JX4i/4.000000i -R-40/20/-20/40 -O -K -P -S+0.3c -W0.5px,0/0/0
%%PROJ: xy -40.00000000 20.00000000 -20.00000000 40.00000000 -40.000 20.000 -20.000 40.000 +xy +a=6378137.000 +b=6356752.314245
S V
0 0 M
1200 0 D
0 1200 D
-1200 0 D
eoclip N
S 0 W
S 0 A
18 444 512 x
18 485 756 x
18 525 512 x
18 566 308 x
18 749 410 x
S U
S [] 0 B
S 0 A
PSL_font_encode 0 get 0 eq {ISOLatin1+_Encoding /Helvetica /Helvetica PSL_reencode PSL_font_encode 0 1 put} if
0 setlinecap
0 setlinejoin
3.32551 setmiterlimit

%% PostScript produced by:
%%GMT:  psxy -JX4i/4.000000i -R-40/20/-20/40 -O -K -P -Sx0.2c -W0.5px,0/0/0
%%PROJ: xy -40.00000000 20.00000000 -20.00000000 40.00000000 -40.000 20.000 -20.000 40.000 +xy +a=6378137.000 +b=6356752.314245
S V
0 0 M
1200 0 D
0 1200 D
-1200 0 D
eoclip N
S 0 W
S 0 A
12 809 783 X
12 564 815 X
12 786 705 X
12 969 608 X
12 819 462 X
S U
S [] 0 B
S 0 A
PSL_font_encode 0 get 0 eq {ISOLatin1+_Encoding /Helvetica /Helvetica PSL_reencode PSL_font_encode 0 1 put} if
0 setlinecap
0 setlinejoin
3.32551 setmiterlimit

%% PostScript produced by:
%%GMT:  psxy -JX4i/4.000000i -R-40/20/-20/40 -O -K -P -M -W0.6p,10/10/10 ./gmt/highway-46-41_km.xyz
%%PROJ: xy -40.00000000 20.00000000 -20.00000000 40.00000000 -40.000 20.000 -20.000 40.000 +xy +a=6378137.000 +b=6356752.314245
S 2 W
S 0.0392 A
1200 137 M
-27 17 D
-12 9 D
-17 12 D
-12 9 D
-14 9 D
-9 5 D
-12 7 D
-4 5 D
-3 10 D
-1 5 D
-5 4 D
-16 3 D
-15 0 D
-20 -1 D
-21 -2 D
-23 -7 D
-20 -4 D
-13 -3 D
-10 -2 D
-4 -3 D
-6 -13 D
-9 -17 D
-8 -7 D
-14 -10 D
-20 -14 D
-12 -16 D
-14 -16 D
-11 -20 D
-25 -18 D
-9 -12 D
-5 -4 D
-6 -3 D
-49 2 D
-50 0 D
-166 -1 D
-6 -3 D
-5 -3 D
-25 -1 D
-25 11 D
-75 3 D
-28 1 D
-12 -3 D
-46 -27 D
-80 2 D
-12 -4 D
S
S 0 A
PSL_font_encode 0 get 0 eq {ISOLatin1+_Encoding /Helvetica /Helvetica PSL_reencode PSL_font_encode 0 1 put} if
0 setlinecap
0 setlinejoin
3.32551 setmiterlimit

%% PostScript produced by:
%%GMT:  pstext -JX4i/4.000000i -R-40/20/-20/40 -O -K -P -D0/0.2c
%%PROJ: xy -40.00000000 20.00000000 -20.00000000 40.00000000 -40.000 20.000 -20.000 40.000 +xy +a=6378137.000 +b=6356752.314245
S 0 W
S 0 A
S V
0 0 M
1200 0 D
0 1200 D
-1200 0 D
eoclip N
PSL_font_encode 4 get 0 eq {ISOLatin1+_Encoding /Times-Roman /Times-Roman PSL_reencode PSL_font_encode 4 1 put} if
0 0 M 38 F4 (P287) E /PSL_dim_w exch def FP pathbbox N /PSL_dim_h exch def pop /PSL_dim_d exch def pop
232 911 M PSL_dim_w 2 div neg 0 G 38 F4 (P287) Z
0 0 M 38 F4 (P289) E /PSL_dim_w exch def FP pathbbox N /PSL_dim_h exch def pop /PSL_dim_d exch def pop
147 1096 M PSL_dim_w 2 div neg 0 G 38 F4 (P289) Z
0 0 M 38 F4 (P291) E /PSL_dim_w exch def FP pathbbox N /PSL_dim_h exch def pop /PSL_dim_d exch def pop
319 680 M PSL_dim_w 2 div neg 0 G 38 F4 (P291) Z
0 0 M 38 F4 (P293) E /PSL_dim_w exch def FP pathbbox N /PSL_dim_h exch def pop /PSL_dim_d exch def pop
517 1043 M PSL_dim_w 2 div neg 0 G 38 F4 (P293) Z
0 0 M 38 F4 (P297) E /PSL_dim_w exch def FP pathbbox N /PSL_dim_h exch def pop /PSL_dim_d exch def pop
491 788 M PSL_dim_w 2 div neg 0 G 38 F4 (P297) Z
0 0 M 38 F4 (P539) E /PSL_dim_w exch def FP pathbbox N /PSL_dim_h exch def pop /PSL_dim_d exch def pop
1139 163 M PSL_dim_w 2 div neg 0 G 38 F4 (P539) Z
0 0 M 38 F4 (P552) E /PSL_dim_w exch def FP pathbbox N /PSL_dim_h exch def pop /PSL_dim_d exch def pop
1024 131 M PSL_dim_w 2 div neg 0 G 38 F4 (P552) Z
0 0 M 38 F4 (P578) E /PSL_dim_w exch def FP pathbbox N /PSL_dim_h exch def pop /PSL_dim_d exch def pop
1035 148 M PSL_dim_w 2 div neg 0 G 38 F4 (P578) Z
0 0 M 38 F4 (P602) E /PSL_dim_w exch def FP pathbbox N /PSL_dim_h exch def pop /PSL_dim_d exch def pop
1058 224 M PSL_dim_w 2 div neg 0 G 38 F4 (P602) Z
0 0 M 38 F4 (P782) E /PSL_dim_w exch def FP pathbbox N /PSL_dim_h exch def pop /PSL_dim_d exch def pop
1076 145 M PSL_dim_w 2 div neg 0 G 38 F4 (P782) Z
0 0 M 38 F4 (P790) E /PSL_dim_w exch def FP pathbbox N /PSL_dim_h exch def pop /PSL_dim_d exch def pop
554 686 M PSL_dim_w 2 div neg 0 G 38 F4 (P790) Z
0 0 M 38 F4 (POMM) E /PSL_dim_w exch def FP pathbbox N /PSL_dim_h exch def pop /PSL_dim_d exch def pop
619 663 M PSL_dim_w 2 div neg 0 G 38 F4 (POMM) Z
0 0 M 38 F4 (POMM) E /PSL_dim_w exch def FP pathbbox N /PSL_dim_h exch def pop /PSL_dim_d exch def pop
619 663 M PSL_dim_w 2 div neg 0 G 38 F4 (POMM) Z
0 0 M 38 F4 (RNCH) E /PSL_dim_w exch def FP pathbbox N /PSL_dim_h exch def pop /PSL_dim_d exch def pop
534 622 M PSL_dim_w 2 div neg 0 G 38 F4 (RNCH) Z
0 0 M 38 F4 (RNCH) E /PSL_dim_w exch def FP pathbbox N /PSL_dim_h exch def pop /PSL_dim_d exch def pop
534 622 M PSL_dim_w 2 div neg 0 G 38 F4 (RNCH) Z
S U
S [] 0 B
S 0 A
PSL_font_encode 0 get 0 eq {ISOLatin1+_Encoding /Helvetica /Helvetica PSL_reencode PSL_font_encode 0 1 put} if
0 setlinecap
0 setlinejoin
3.32551 setmiterlimit

%% PostScript produced by:
%%GMT:  psxy -JX4i/4.000000i -R-40/20/-20/40 -O -K -P -Sc0.1c -G10/10/10 -W0.6p/10/10/10
%%PROJ: xy -40.00000000 20.00000000 -20.00000000 40.00000000 -40.000 20.000 -20.000 40.000 +xy +a=6378137.000 +b=6356752.314245
S V
0 0 M
1200 0 D
0 1200 D
-1200 0 D
eoclip N
S 2 W
S 0.0392 A
{0.0392 A} FS
O1
6 933 192 SC
6 701 592 SC
S U
S [] 0 B
S 0 A
PSL_font_encode 0 get 0 eq {ISOLatin1+_Encoding /Helvetica /Helvetica PSL_reencode PSL_font_encode 0 1 put} if
0 setlinecap
0 setlinejoin
3.32551 setmiterlimit

%% PostScript produced by:
%%GMT:  pstext -JX4i/4.000000i -R-40/20/-20/40 -O -K -P -G0/0/0 -D0.1/0
%%PROJ: xy -40.00000000 20.00000000 -20.00000000 40.00000000 -40.000 20.000 -20.000 40.000 +xy +a=6378137.000 +b=6356752.314245
S 0 W
S 0 A
S V
0 0 M
1200 0 D
0 1200 D
-1200 0 D
eoclip N
PSL_font_encode 4 get 0 eq {ISOLatin1+_Encoding /Times-Roman /Times-Roman PSL_reencode PSL_font_encode 4 1 put} if
0 0 M 38 F4 (Cholame) E /PSL_dim_w exch def FP pathbbox N /PSL_dim_h exch def pop /PSL_dim_d exch def pop
945 192 M 0 PSL_dim_h neg G 38 F4 (Cholame) Z
0 0 M 38 F4 (Parkfield) E /PSL_dim_w exch def FP pathbbox N /PSL_dim_h exch def pop /PSL_dim_d exch def pop
713 592 M 0 PSL_dim_h neg G 38 F4 (Parkfield) Z
S U
S [] 0 B
S 0 A
PSL_font_encode 0 get 0 eq {ISOLatin1+_Encoding /Helvetica /Helvetica PSL_reencode PSL_font_encode 0 1 put} if
0 setlinecap
0 setlinejoin
3.32551 setmiterlimit

%% PostScript produced by:
%%GMT:  pstext -JX4i/4.000000i -R-40/20/-20/40 -O -K -P -W255/255/255 -G0/0/0 -D0.1/0
%%PROJ: xy -40.00000000 20.00000000 -20.00000000 40.00000000 -40.000 20.000 -20.000 40.000 +xy +a=6378137.000 +b=6356752.314245
S 0 W
S 0 A
S V
0 0 M
1200 0 D
0 1200 D
-1200 0 D
eoclip N
S U
S [] 0 B
S 0 A
PSL_font_encode 0 get 0 eq {ISOLatin1+_Encoding /Helvetica /Helvetica PSL_reencode PSL_font_encode 0 1 put} if
0 setlinecap
0 setlinejoin
3.32551 setmiterlimit

%% PostScript produced by:
%%GMT:  psxy -JX4i/4.000000i -R-40/20/-20/40 -O -Sp0.001c
%%PROJ: xy -40.00000000 20.00000000 -20.00000000 40.00000000 -40.000 20.000 -20.000 40.000 +xy +a=6378137.000 +b=6356752.314245
S V
0 0 M
1200 0 D
0 1200 D
-1200 0 D
eoclip N
S 1 W
S 0 A
1 setlinecap
0 800 400 O
0 setlinecap
S U
S [] 0 B
%%PageTrailer
S -0 -0 T 4.16667 4.16667 scale 0 A
showpage

%%Trailer

end
%%EOF
%% Postscript created with
%% map.sh -b -40/20/-20/40 -e ./gmt/efaults.sh -e ./gmt/egps.sh -e ./gmt/elandmarks.sh -E patch_2x2/new_5.ps
